#Numero;X;Y;Z;profAtypique;cod_PGOC;Cod_Proj;Commentaire
1;1535898.8250;9159922.7040;136.7700;;AFF_CRBT;CC50;
2;1535882.7480;9159941.3860;136.8500;;AFF_CRBT;CC50;
3;1535504.1890;9159919.6240;139.8200;;C_RAS;CC50;
4;1535492.7500;9159898.7550;139.6200;;AFF_POS;CC50;
5;1535492.8540;9159897.0800;139.6400;;AFF_POS;CC50;
6;1535494.7890;9159897.2060;139.6500;;AFF_POS;CC50;
7;1535494.6720;9159898.8780;139.6200;;AFF_POS;CC50;
8;1535494.2870;9159898.8530;139.9000;;AFF_POS;CC50;
9;1535494.1560;9159898.8450;139.8700;;AFF_POS;CC50;
10;1535896.3350;9159919.0470;135.9400;;AFF_POS;CC50;
11;1535898.2650;9159919.4220;135.9300;;AFF_POS;CC50;
12;1535898.3760;9159918.8660;135.7200;;AFF_POS;CC50;
13;1535898.3980;9159918.7580;135.8500;;AFF_POS;CC50;
14;1535898.5680;9159917.9040;135.9300;;AFF_POS;CC50;
15;1535896.6260;9159917.5220;135.9300;;AFF_POS;CC50;
16;1535743.4490;9159929.7060;136.7700;;ACC_BJ;CC50;
17;1535738.6650;9159932.8330;137.5100;;C_RAS;CC50;
19;1535743.1510;9159929.7730;136.7700;;C_HTA;CC50;
20;1535742.4220;9159929.8990;136.7800;;C_HTA;CC50;
21;1535741.3590;9159930.2700;136.7800;;C_HTA;CC50;
22;1535740.6330;9159930.6330;136.6100;;C_HTA;CC50;
23;1535739.8970;9159931.1720;136.3600;;C_HTA;CC50;
24;1535739.4520;9159931.7730;136.4300;;C_HTA;CC50;
25;1535739.0530;9159932.5340;136.8200;;C_HTA;CC50;
27;1535899.0720;9159923.4580;135.9500;;ACC_BJ;CC50;
28;1535898.3760;9159918.8660;135.7200;;C_BT;CC50;
29;1535899.6310;9159919.2640;135.5900;;C_BT;CC50;
30;1535900.2880;9159919.6990;135.8200;;C_BT;CC50;
31;1535900.5320;9159920.2500;135.9400;;C_BT;CC50;
32;1535900.3460;9159921.0430;135.9900;;C_BT;CC50;
33;1535900.0970;9159921.6750;136.0400;;C_BT;CC50;
34;1535899.5270;9159922.3680;136.2300;;C_BT;CC50;
36;1535898.3980;9159918.7580;135.8500;;C_BT;CC50;
37;1535899.6000;9159919.0960;135.5700;;C_BT;CC50;
38;1535900.1300;9159919.4440;135.8000;;C_BT;CC50;
39;1535900.5620;9159919.9960;135.9500;;C_BT;CC50;
40;1535900.6050;9159920.5080;135.9600;;C_BT;CC50;
41;1535900.2570;9159921.5560;136.0100;;C_BT;CC50;
42;1535899.6010;9159922.8140;135.9600;;C_BT;CC50;
44;1535897.8370;9159916.1580;135.7800;;ACC_BJ;CC50;
46;1535503.7430;9159918.1500;139.5500;;C_HTA;CC50;
47;1535503.1340;9159916.7160;139.6900;;C_HTA;CC50;
48;1535502.4440;9159915.6700;139.4400;;C_HTA;CC50;
49;1535500.8440;9159913.7200;139.2300;;C_HTA;CC50;
50;1535499.0800;9159911.6180;138.5100;;C_HTA;CC50;
51;1535497.4880;9159909.4890;137.9200;;C_HTA;CC50;
52;1535495.5970;9159907.3110;137.4800;;C_HTA;CC50;
53;1535493.7630;9159905.1920;137.9700;;C_HTA;CC50;
54;1535492.0620;9159902.9100;138.0200;;C_HTA;CC50;
55;1535490.2460;9159900.4700;138.2300;;C_HTA;CC50;
56;1535489.8900;9159899.7160;138.3500;;C_HTA;CC50;
57;1535490.1820;9159899.0590;138.4500;;C_HTA;CC50;
58;1535490.6870;9159898.7280;138.4700;;C_HTA;CC50;
59;1535491.4070;9159898.7220;139.0400;;C_HTA;CC50;
60;1535492.4430;9159899.2350;139.7700;;C_HTA;CC50;
61;1535493.1130;9159899.4070;139.7400;;C_HTA;CC50;
62;1535493.8590;9159899.2170;139.7300;;C_HTA;CC50;
63;1535494.1560;9159898.8450;139.8700;;C_HTA;CC50;
64;1535494.2870;9159898.8530;139.9000;;C_HTA;CC50;
65;1535493.9960;9159899.2660;139.7600;;C_HTA;CC50;
66;1535493.4320;9159899.5290;139.7500;;C_HTA;CC50;
67;1535492.8390;9159899.5660;139.7400;;C_HTA;CC50;
68;1535491.9900;9159899.2280;139.6000;;C_HTA;CC50;
69;1535491.5390;9159898.9390;138.5200;;C_HTA;CC50;
70;1535490.9320;9159898.8760;138.3400;;C_HTA;CC50;
71;1535490.2550;9159899.2080;138.5000;;C_HTA;CC50;
72;1535490.1660;9159900.0320;138.3900;;C_HTA;CC50;
73;1535490.6270;9159900.7690;138.2200;;C_HTA;CC50;
74;1535491.8380;9159902.3610;138.0400;;C_HTA;CC50;
75;1535494.0360;9159905.3580;137.9500;;C_HTA;CC50;
76;1535495.8510;9159907.3890;137.4300;;C_HTA;CC50;
77;1535497.8250;9159909.6740;137.9700;;C_HTA;CC50;
78;1535499.5780;9159911.9180;138.5600;;C_HTA;CC50;
79;1535501.5690;9159914.2830;139.2400;;C_HTA;CC50;
80;1535502.8210;9159915.9140;139.4600;;C_HTA;CC50;
81;1535503.6070;9159916.3540;139.6000;;C_HTA;CC50;
82;1535505.5320;9159916.7130;139.6400;;C_HTA;CC50;
83;1535507.5540;9159916.8760;139.6600;;C_HTA;CC50;
84;1535509.2840;9159917.0490;139.6100;;C_HTA;CC50;
85;1535516.5190;9159917.2980;139.6800;;C_HTA;CC50;
86;1535526.6300;9159917.8470;139.7500;;C_HTA;CC50;
87;1535535.9640;9159918.4300;139.7900;;C_HTA;CC50;
88;1535544.7370;9159918.8600;139.8100;;C_HTA;CC50;
89;1535553.3000;9159919.3730;139.6400;;C_HTA;CC50;
90;1535562.7040;9159919.9760;139.6400;;C_HTA;CC50;
91;1535572.0260;9159920.4880;139.4900;;C_HTA;CC50;
92;1535582.0060;9159921.0740;139.4300;;C_HTA;CC50;
93;1535591.0510;9159921.4250;139.1900;;C_HTA;CC50;
94;1535600.8910;9159922.0300;139.1700;;C_HTA;CC50;
95;1535608.4440;9159922.3170;138.8900;;C_HTA;CC50;
96;1535616.4900;9159922.7520;138.8400;;C_HTA;CC50;
97;1535623.0350;9159923.0960;138.7700;;C_HTA;CC50;
98;1535633.8560;9159923.6520;138.5600;;C_HTA;CC50;
99;1535644.6640;9159924.2010;138.4200;;C_HTA;CC50;
100;1535655.3720;9159924.9090;138.2300;;C_HTA;CC50;
101;1535665.6110;9159925.4500;138.0400;;C_HTA;CC50;
102;1535675.2280;9159926.0110;137.8300;;C_HTA;CC50;
103;1535683.3230;9159926.5020;137.7500;;C_HTA;CC50;
104;1535691.4210;9159926.9360;137.5100;;C_HTA;CC50;
105;1535698.5400;9159927.2520;137.4300;;C_HTA;CC50;
106;1535704.4930;9159927.5750;137.3600;;C_HTA;CC50;
107;1535710.0370;9159927.8130;137.1300;;C_HTA;CC50;
108;1535715.6910;9159928.1540;137.0900;;C_HTA;CC50;
109;1535719.7120;9159928.3400;137.0700;;C_HTA;CC50;
110;1535724.5390;9159928.6410;137.0300;;C_HTA;CC50;
111;1535728.8030;9159928.9160;136.8800;;C_HTA;CC50;
112;1535733.2990;9159929.1860;136.8800;;C_HTA;CC50;
113;1535737.0290;9159929.3610;136.9200;;C_HTA;CC50;
114;1535741.2550;9159929.6170;136.8300;;C_HTA;CC50;
115;1535745.6450;9159929.7450;136.7900;;C_HTA;CC50;
116;1535748.4540;9159930.0020;136.6200;;C_HTA;CC50;
117;1535753.4390;9159930.1920;136.6300;;C_HTA;CC50;
118;1535758.8030;9159930.4580;136.5700;;C_HTA;CC50;
119;1535764.0690;9159930.7870;136.5700;;C_HTA;CC50;
120;1535769.5570;9159931.0730;136.5200;;C_HTA;CC50;
121;1535774.8570;9159931.3500;136.5300;;C_HTA;CC50;
122;1535779.3390;9159931.6100;136.4800;;C_HTA;CC50;
123;1535785.0700;9159931.9230;136.5000;;C_HTA;CC50;
124;1535790.7830;9159932.2790;136.4200;;C_HTA;CC50;
125;1535796.1830;9159932.5530;136.4400;;C_HTA;CC50;
126;1535802.0530;9159932.9060;136.4500;;C_HTA;CC50;
127;1535808.2300;9159933.2840;136.4100;;C_HTA;CC50;
128;1535813.9040;9159933.6130;136.4400;;C_HTA;CC50;
129;1535819.8370;9159933.9590;136.3900;;C_HTA;CC50;
130;1535826.1980;9159934.2820;136.3800;;C_HTA;CC50;
131;1535831.9840;9159934.6030;136.3900;;C_HTA;CC50;
132;1535837.9340;9159934.9890;136.3000;;C_HTA;CC50;
133;1535839.9650;9159935.0950;36.4600;;C_HTA;CC50;
134;1535841.8270;9159935.1930;136.6200;;C_HTA;CC50;
135;1535843.7600;9159935.3020;36.4600;;C_HTA;CC50;
136;1535850.0860;9159935.6590;136.3500;;C_HTA;CC50;
137;1535856.4970;9159935.9770;136.4000;;C_HTA;CC50;
138;1535862.0700;9159936.2070;136.3700;;C_HTA;CC50;
139;1535867.6390;9159936.5370;136.3800;;C_HTA;CC50;
140;1535872.8140;9159936.9470;136.4600;;C_HTA;CC50;
141;1535875.1340;9159937.0510;136.5400;;C_HTA;CC50;
142;1535877.2420;9159937.2020;136.5800;;C_HTA;CC50;
143;1535879.4820;9159937.3970;136.5600;;C_HTA;CC50;
144;1535880.5770;9159937.1490;136.5700;;C_HTA;CC50;
145;1535881.4080;9159936.8100;136.1200;;C_HTA;CC50;
146;1535883.5950;9159934.6040;135.7100;;C_HTA;CC50;
147;1535885.3490;9159932.3290;135.1300;;C_HTA;CC50;
148;1535887.1010;9159930.1680;134.6900;;C_HTA;CC50;
149;1535888.8960;9159927.5550;134.5000;;C_HTA;CC50;
150;1535890.7480;9159925.1360;134.3100;;C_HTA;CC50;
151;1535891.9270;9159923.3920;133.7500;;C_HTA;CC50;
152;1535892.9360;9159921.7720;134.4300;;C_HTA;CC50;
153;1535893.2800;9159921.2210;134.7000;;C_HTA;CC50;
154;1535893.8670;9159920.8690;135.3800;;C_HTA;CC50;
155;1535894.6050;9159920.3990;135.4100;;C_HTA;CC50;
156;1535895.1980;9159919.5930;135.5300;;C_HTA;CC50;
157;1535895.4000;9159918.9550;135.6900;;C_HTA;CC50;
158;1535895.6880;9159917.7150;135.3300;;C_HTA;CC50;
159;1535896.0240;9159916.2310;135.0600;;C_HTA;CC50;
160;1535896.6390;9159915.4000;135.0400;;C_HTA;CC50;
161;1535897.5130;9159915.4220;135.0400;;C_HTA;CC50;
162;1535897.8410;9159915.9000;135.3000;;C_HTA;CC50;
164;1535897.7750;9159916.5770;135.8000;;C_HTA;CC50;
200;1535897.236;9159917.715;135.9300;;C_HTA;CC50;
201;1535735.094;9159930.740;136.8900;;C_HTA;CC50;
202;1535743.478;9159932.588;136.4400;;C_HTA;CC50;
203;1535736.015;9159935.731;136.5200;;C_HTA;CC50;
204;1535501.104;9159917.317;139.6200;;C_HTA;CC50;
205;1535509.448;9159919.165;139.5900;;C_HTA;CC50;
206;1535501.514;9159923.085;139.9200;;C_HTA;CC50;
